<?xml version="1.0" encoding="UTF-8"?>
<session version="1.0">
<refactoring accessors="true" comment="Delete element from project &apos;FOJProject1&apos;&#x0D;&#x0A;- Original project: &apos;FOJProject1&apos;&#x0D;&#x0A;- Original element: &apos;Assignment06.Duplicate.java&apos;" description="Delete element" element1="/src&lt;Assignment06{Duplicate.java" elements="1" flags="589830" id="org.eclipse.jdt.ui.delete" resources="0" stamp="1711963977269" subPackages="false" version="1.0"/>
</session>